{
	"albums": {
		"href": "https://api.spotify.com/v1/browse/new-releases?offset=0&limit=5",
		"items": [
			{
				"album_type": "single",
				"artists": [
					{
						"external_urls": {
							"spotify": "https://open.spotify.com/artist/4dpARuHxo51G3z768sgnrY"
						},
						"href": "https://api.spotify.com/v1/artists/4dpARuHxo51G3z768sgnrY",
						"id": "4dpARuHxo51G3z768sgnrY",
						"name": "Adele",
						"type": "artist",
						"uri": "spotify:artist:4dpARuHxo51G3z768sgnrY"
					}
				],
				"available_markets": [
					"AD",
					"AE",
					"AG",
					"AL",
					"AM",
					"AO",
					"AR",
					"AT",
					"AU",
					"AZ",
					"BA",
					"BB",
					"BD",
					"BE",
					"BF",
					"BG",
					"BH",
					"BI",
					"BJ",
					"BN",
					"BO",
					"BR",
					"BS",
					"BT",
					"BW",
					"BY",
					"BZ",
					"CA",
					"CH",
					"CI",
					"CL",
					"CM",
					"CO",
					"CR",
					"CV",
					"CW",
					"CY",
					"CZ",
					"DE",
					"DJ",
					"DK",
					"DM",
					"DO",
					"DZ",
					"EC",
					"EE",
					"EG",
					"ES",
					"FI",
					"FJ",
					"FM",
					"FR",
					"GA",
					"GB",
					"GD",
					"GE",
					"GH",
					"GM",
					"GN",
					"GQ",
					"GR",
					"GT",
					"GW",
					"GY",
					"HK",
					"HN",
					"HR",
					"HT",
					"HU",
					"ID",
					"IE",
					"IL",
					"IN",
					"IS",
					"IT",
					"JM",
					"JO",
					"JP",
					"KE",
					"KG",
					"KH",
					"KI",
					"KM",
					"KN",
					"KR",
					"KW",
					"KZ",
					"LA",
					"LB",
					"LC",
					"LI",
					"LK",
					"LR",
					"LS",
					"LT",
					"LU",
					"LV",
					"MA",
					"MC",
					"MD",
					"ME",
					"MG",
					"MH",
					"MK",
					"ML",
					"MN",
					"MO",
					"MR",
					"MT",
					"MU",
					"MV",
					"MW",
					"MX",
					"MY",
					"MZ",
					"NA",
					"NE",
					"NG",
					"NI",
					"NL",
					"NO",
					"NP",
					"NR",
					"NZ",
					"OM",
					"PA",
					"PE",
					"PG",
					"PH",
					"PK",
					"PL",
					"PS",
					"PT",
					"PW",
					"PY",
					"QA",
					"RO",
					"RS",
					"RU",
					"RW",
					"SA",
					"SB",
					"SC",
					"SE",
					"SG",
					"SI",
					"SK",
					"SL",
					"SM",
					"SN",
					"SR",
					"ST",
					"SV",
					"SZ",
					"TD",
					"TG",
					"TH",
					"TL",
					"TN",
					"TO",
					"TR",
					"TT",
					"TV",
					"TW",
					"TZ",
					"UA",
					"UG",
					"US",
					"UY",
					"UZ",
					"VC",
					"VN",
					"VU",
					"WS",
					"XK",
					"ZA",
					"ZM",
					"ZW"
				],
				"external_urls": {
					"spotify": "https://open.spotify.com/album/224jZ4sUX7OhAuMwaxp86S"
				},
				"href": "https://api.spotify.com/v1/albums/224jZ4sUX7OhAuMwaxp86S",
				"id": "224jZ4sUX7OhAuMwaxp86S",
				"images": [
					{
						"height": 640,
						"url": "https://i.scdn.co/image/ab67616d0000b27350dba34377a595e35f81b0e4",
						"width": 640
					},
					{
						"height": 300,
						"url": "https://i.scdn.co/image/ab67616d00001e0250dba34377a595e35f81b0e4",
						"width": 300
					},
					{
						"height": 64,
						"url": "https://i.scdn.co/image/ab67616d0000485150dba34377a595e35f81b0e4",
						"width": 64
					}
				],
				"name": "Easy On Me",
				"release_date": "2021-10-14",
				"release_date_precision": "day",
				"total_tracks": 1,
				"type": "album",
				"uri": "spotify:album:224jZ4sUX7OhAuMwaxp86S"
			},
			{
				"album_type": "album",
				"artists": [
					{
						"external_urls": {
							"spotify": "https://open.spotify.com/artist/50co4Is1HCEo8bhOyUWKpn"
						},
						"href": "https://api.spotify.com/v1/artists/50co4Is1HCEo8bhOyUWKpn",
						"id": "50co4Is1HCEo8bhOyUWKpn",
						"name": "Young Thug",
						"type": "artist",
						"uri": "spotify:artist:50co4Is1HCEo8bhOyUWKpn"
					}
				],
				"available_markets": [
					"AD",
					"AE",
					"AG",
					"AL",
					"AM",
					"AO",
					"AR",
					"AT",
					"AU",
					"AZ",
					"BA",
					"BB",
					"BD",
					"BE",
					"BF",
					"BG",
					"BH",
					"BI",
					"BJ",
					"BN",
					"BO",
					"BR",
					"BS",
					"BT",
					"BW",
					"BY",
					"BZ",
					"CA",
					"CH",
					"CI",
					"CL",
					"CM",
					"CO",
					"CR",
					"CV",
					"CW",
					"CY",
					"CZ",
					"DE",
					"DJ",
					"DK",
					"DM",
					"DO",
					"DZ",
					"EC",
					"EE",
					"EG",
					"ES",
					"FI",
					"FJ",
					"FM",
					"FR",
					"GA",
					"GB",
					"GD",
					"GE",
					"GH",
					"GM",
					"GN",
					"GQ",
					"GR",
					"GT",
					"GW",
					"GY",
					"HK",
					"HN",
					"HR",
					"HT",
					"HU",
					"ID",
					"IE",
					"IL",
					"IN",
					"IS",
					"IT",
					"JM",
					"JO",
					"JP",
					"KE",
					"KG",
					"KH",
					"KI",
					"KM",
					"KN",
					"KR",
					"KW",
					"KZ",
					"LA",
					"LB",
					"LC",
					"LI",
					"LK",
					"LR",
					"LS",
					"LT",
					"LU",
					"LV",
					"MA",
					"MC",
					"MD",
					"ME",
					"MG",
					"MH",
					"MK",
					"ML",
					"MN",
					"MO",
					"MR",
					"MT",
					"MU",
					"MV",
					"MW",
					"MX",
					"MY",
					"MZ",
					"NA",
					"NE",
					"NG",
					"NI",
					"NL",
					"NO",
					"NP",
					"NR",
					"NZ",
					"OM",
					"PA",
					"PE",
					"PG",
					"PH",
					"PK",
					"PL",
					"PS",
					"PT",
					"PW",
					"PY",
					"QA",
					"RO",
					"RS",
					"RU",
					"RW",
					"SA",
					"SB",
					"SC",
					"SE",
					"SG",
					"SI",
					"SK",
					"SL",
					"SM",
					"SN",
					"SR",
					"ST",
					"SV",
					"SZ",
					"TD",
					"TG",
					"TH",
					"TL",
					"TN",
					"TO",
					"TR",
					"TT",
					"TV",
					"TW",
					"TZ",
					"UA",
					"UG",
					"US",
					"UY",
					"UZ",
					"VC",
					"VN",
					"VU",
					"WS",
					"XK",
					"ZA",
					"ZM",
					"ZW"
				],
				"external_urls": {
					"spotify": "https://open.spotify.com/album/7IKkHmEk4It4cRdOYanyvW"
				},
				"href": "https://api.spotify.com/v1/albums/7IKkHmEk4It4cRdOYanyvW",
				"id": "7IKkHmEk4It4cRdOYanyvW",
				"images": [
					{
						"height": 640,
						"url": "https://i.scdn.co/image/ab67616d0000b273f8d415dab5ed7e3747bd38dd",
						"width": 640
					},
					{
						"height": 300,
						"url": "https://i.scdn.co/image/ab67616d00001e02f8d415dab5ed7e3747bd38dd",
						"width": 300
					},
					{
						"height": 64,
						"url": "https://i.scdn.co/image/ab67616d00004851f8d415dab5ed7e3747bd38dd",
						"width": 64
					}
				],
				"name": "Punk",
				"release_date": "2021-10-15",
				"release_date_precision": "day",
				"total_tracks": 20,
				"type": "album",
				"uri": "spotify:album:7IKkHmEk4It4cRdOYanyvW"
			},
			{
				"album_type": "album",
				"artists": [
					{
						"external_urls": {
							"spotify": "https://open.spotify.com/artist/4gzpq5DPGxSnKTe4SA8HAU"
						},
						"href": "https://api.spotify.com/v1/artists/4gzpq5DPGxSnKTe4SA8HAU",
						"id": "4gzpq5DPGxSnKTe4SA8HAU",
						"name": "Coldplay",
						"type": "artist",
						"uri": "spotify:artist:4gzpq5DPGxSnKTe4SA8HAU"
					}
				],
				"available_markets": [
					"AD",
					"AE",
					"AG",
					"AL",
					"AM",
					"AO",
					"AR",
					"AT",
					"AU",
					"AZ",
					"BA",
					"BB",
					"BD",
					"BE",
					"BF",
					"BG",
					"BH",
					"BI",
					"BJ",
					"BN",
					"BO",
					"BR",
					"BS",
					"BT",
					"BW",
					"BY",
					"BZ",
					"CA",
					"CH",
					"CI",
					"CL",
					"CM",
					"CO",
					"CR",
					"CV",
					"CW",
					"CY",
					"CZ",
					"DE",
					"DJ",
					"DK",
					"DM",
					"DO",
					"DZ",
					"EC",
					"EE",
					"EG",
					"ES",
					"FI",
					"FJ",
					"FM",
					"FR",
					"GA",
					"GB",
					"GD",
					"GE",
					"GH",
					"GM",
					"GN",
					"GQ",
					"GR",
					"GT",
					"GW",
					"GY",
					"HK",
					"HN",
					"HR",
					"HT",
					"HU",
					"ID",
					"IE",
					"IL",
					"IN",
					"IS",
					"IT",
					"JM",
					"JO",
					"JP",
					"KE",
					"KG",
					"KH",
					"KI",
					"KM",
					"KN",
					"KR",
					"KW",
					"KZ",
					"LA",
					"LB",
					"LC",
					"LI",
					"LK",
					"LR",
					"LS",
					"LT",
					"LU",
					"LV",
					"MA",
					"MC",
					"MD",
					"ME",
					"MG",
					"MH",
					"MK",
					"ML",
					"MN",
					"MO",
					"MR",
					"MT",
					"MU",
					"MV",
					"MW",
					"MX",
					"MY",
					"MZ",
					"NA",
					"NE",
					"NG",
					"NI",
					"NL",
					"NO",
					"NP",
					"NR",
					"NZ",
					"OM",
					"PA",
					"PE",
					"PG",
					"PH",
					"PK",
					"PL",
					"PS",
					"PT",
					"PW",
					"PY",
					"QA",
					"RO",
					"RS",
					"RU",
					"RW",
					"SA",
					"SB",
					"SC",
					"SE",
					"SG",
					"SI",
					"SK",
					"SL",
					"SM",
					"SN",
					"SR",
					"ST",
					"SV",
					"SZ",
					"TD",
					"TG",
					"TH",
					"TL",
					"TN",
					"TO",
					"TR",
					"TT",
					"TV",
					"TW",
					"TZ",
					"UA",
					"UG",
					"US",
					"UY",
					"UZ",
					"VC",
					"VN",
					"VU",
					"WS",
					"XK",
					"ZA",
					"ZM",
					"ZW"
				],
				"external_urls": {
					"spotify": "https://open.spotify.com/album/06mXfvDsRZNfnsGZvX2zpb"
				},
				"href": "https://api.spotify.com/v1/albums/06mXfvDsRZNfnsGZvX2zpb",
				"id": "06mXfvDsRZNfnsGZvX2zpb",
				"images": [
					{
						"height": 640,
						"url": "https://i.scdn.co/image/ab67616d0000b273ec10f247b100da1ce0d80b6d",
						"width": 640
					},
					{
						"height": 300,
						"url": "https://i.scdn.co/image/ab67616d00001e02ec10f247b100da1ce0d80b6d",
						"width": 300
					},
					{
						"height": 64,
						"url": "https://i.scdn.co/image/ab67616d00004851ec10f247b100da1ce0d80b6d",
						"width": 64
					}
				],
				"name": "Music Of The Spheres",
				"release_date": "2021-10-15",
				"release_date_precision": "day",
				"total_tracks": 12,
				"type": "album",
				"uri": "spotify:album:06mXfvDsRZNfnsGZvX2zpb"
			},
			{
				"album_type": "album",
				"artists": [
					{
						"external_urls": {
							"spotify": "https://open.spotify.com/artist/78rUTD7y6Cy67W1RVzYs7t"
						},
						"href": "https://api.spotify.com/v1/artists/78rUTD7y6Cy67W1RVzYs7t",
						"id": "78rUTD7y6Cy67W1RVzYs7t",
						"name": "PinkPantheress",
						"type": "artist",
						"uri": "spotify:artist:78rUTD7y6Cy67W1RVzYs7t"
					}
				],
				"available_markets": [
					"AD",
					"AE",
					"AG",
					"AL",
					"AM",
					"AO",
					"AR",
					"AT",
					"AU",
					"AZ",
					"BA",
					"BB",
					"BD",
					"BE",
					"BF",
					"BG",
					"BH",
					"BI",
					"BJ",
					"BN",
					"BO",
					"BR",
					"BS",
					"BT",
					"BW",
					"BY",
					"BZ",
					"CA",
					"CH",
					"CI",
					"CL",
					"CM",
					"CO",
					"CR",
					"CV",
					"CW",
					"CY",
					"CZ",
					"DE",
					"DJ",
					"DK",
					"DM",
					"DO",
					"DZ",
					"EC",
					"EE",
					"EG",
					"ES",
					"FI",
					"FJ",
					"FM",
					"FR",
					"GA",
					"GB",
					"GD",
					"GE",
					"GH",
					"GM",
					"GN",
					"GQ",
					"GR",
					"GT",
					"GW",
					"GY",
					"HK",
					"HN",
					"HR",
					"HT",
					"HU",
					"ID",
					"IE",
					"IL",
					"IN",
					"IS",
					"IT",
					"JM",
					"JO",
					"JP",
					"KE",
					"KG",
					"KH",
					"KI",
					"KM",
					"KN",
					"KR",
					"KW",
					"KZ",
					"LA",
					"LB",
					"LC",
					"LI",
					"LK",
					"LR",
					"LS",
					"LT",
					"LU",
					"LV",
					"MA",
					"MC",
					"MD",
					"ME",
					"MG",
					"MH",
					"MK",
					"ML",
					"MN",
					"MO",
					"MR",
					"MT",
					"MU",
					"MV",
					"MW",
					"MX",
					"MY",
					"MZ",
					"NA",
					"NE",
					"NG",
					"NI",
					"NL",
					"NO",
					"NP",
					"NR",
					"NZ",
					"OM",
					"PA",
					"PE",
					"PG",
					"PH",
					"PK",
					"PL",
					"PS",
					"PT",
					"PW",
					"PY",
					"QA",
					"RO",
					"RS",
					"RU",
					"RW",
					"SA",
					"SB",
					"SC",
					"SE",
					"SG",
					"SI",
					"SK",
					"SL",
					"SM",
					"SN",
					"SR",
					"ST",
					"SV",
					"SZ",
					"TD",
					"TG",
					"TH",
					"TL",
					"TN",
					"TO",
					"TR",
					"TT",
					"TV",
					"TW",
					"TZ",
					"UA",
					"UG",
					"US",
					"UY",
					"UZ",
					"VC",
					"VN",
					"VU",
					"WS",
					"XK",
					"ZA",
					"ZM",
					"ZW"
				],
				"external_urls": {
					"spotify": "https://open.spotify.com/album/65YAjLCn7Jp33nJpOxIPMe"
				},
				"href": "https://api.spotify.com/v1/albums/65YAjLCn7Jp33nJpOxIPMe",
				"id": "65YAjLCn7Jp33nJpOxIPMe",
				"images": [
					{
						"height": 640,
						"url": "https://i.scdn.co/image/ab67616d0000b273a3628ceab776845d33702b06",
						"width": 640
					},
					{
						"height": 300,
						"url": "https://i.scdn.co/image/ab67616d00001e02a3628ceab776845d33702b06",
						"width": 300
					},
					{
						"height": 64,
						"url": "https://i.scdn.co/image/ab67616d00004851a3628ceab776845d33702b06",
						"width": 64
					}
				],
				"name": "to hell with it",
				"release_date": "2021-10-15",
				"release_date_precision": "day",
				"total_tracks": 10,
				"type": "album",
				"uri": "spotify:album:65YAjLCn7Jp33nJpOxIPMe"
			},
			{
				"album_type": "album",
				"artists": [
					{
						"external_urls": {
							"spotify": "https://open.spotify.com/artist/37M5pPGs6V1fchFJSgCguX"
						},
						"href": "https://api.spotify.com/v1/artists/37M5pPGs6V1fchFJSgCguX",
						"id": "37M5pPGs6V1fchFJSgCguX",
						"name": "FINNEAS",
						"type": "artist",
						"uri": "spotify:artist:37M5pPGs6V1fchFJSgCguX"
					}
				],
				"available_markets": [
					"AD",
					"AE",
					"AG",
					"AL",
					"AM",
					"AO",
					"AR",
					"AT",
					"AU",
					"AZ",
					"BA",
					"BB",
					"BD",
					"BE",
					"BF",
					"BG",
					"BH",
					"BI",
					"BJ",
					"BN",
					"BO",
					"BR",
					"BS",
					"BT",
					"BW",
					"BY",
					"BZ",
					"CA",
					"CH",
					"CI",
					"CL",
					"CM",
					"CO",
					"CR",
					"CV",
					"CW",
					"CY",
					"CZ",
					"DE",
					"DJ",
					"DK",
					"DM",
					"DO",
					"DZ",
					"EC",
					"EE",
					"EG",
					"ES",
					"FI",
					"FJ",
					"FM",
					"FR",
					"GA",
					"GB",
					"GD",
					"GE",
					"GH",
					"GM",
					"GN",
					"GQ",
					"GR",
					"GT",
					"GW",
					"GY",
					"HK",
					"HN",
					"HR",
					"HT",
					"HU",
					"ID",
					"IE",
					"IL",
					"IN",
					"IS",
					"IT",
					"JM",
					"JO",
					"JP",
					"KE",
					"KG",
					"KH",
					"KI",
					"KM",
					"KN",
					"KR",
					"KW",
					"KZ",
					"LA",
					"LB",
					"LC",
					"LI",
					"LK",
					"LR",
					"LS",
					"LT",
					"LU",
					"LV",
					"MA",
					"MC",
					"MD",
					"ME",
					"MG",
					"MH",
					"MK",
					"ML",
					"MN",
					"MO",
					"MR",
					"MT",
					"MU",
					"MV",
					"MW",
					"MX",
					"MY",
					"MZ",
					"NA",
					"NE",
					"NG",
					"NI",
					"NL",
					"NO",
					"NP",
					"NR",
					"NZ",
					"OM",
					"PA",
					"PE",
					"PG",
					"PH",
					"PK",
					"PL",
					"PS",
					"PT",
					"PW",
					"PY",
					"QA",
					"RO",
					"RS",
					"RU",
					"RW",
					"SA",
					"SB",
					"SC",
					"SE",
					"SG",
					"SI",
					"SK",
					"SL",
					"SM",
					"SN",
					"SR",
					"ST",
					"SV",
					"SZ",
					"TD",
					"TG",
					"TH",
					"TL",
					"TN",
					"TO",
					"TR",
					"TT",
					"TV",
					"TW",
					"TZ",
					"UA",
					"UG",
					"US",
					"UY",
					"UZ",
					"VC",
					"VN",
					"VU",
					"WS",
					"XK",
					"ZA",
					"ZM",
					"ZW"
				],
				"external_urls": {
					"spotify": "https://open.spotify.com/album/3KChz6qdEH9AfHE6VCBshZ"
				},
				"href": "https://api.spotify.com/v1/albums/3KChz6qdEH9AfHE6VCBshZ",
				"id": "3KChz6qdEH9AfHE6VCBshZ",
				"images": [
					{
						"height": 640,
						"url": "https://i.scdn.co/image/ab67616d0000b2733bfed0974a996bfd87ea1c9a",
						"width": 640
					},
					{
						"height": 300,
						"url": "https://i.scdn.co/image/ab67616d00001e023bfed0974a996bfd87ea1c9a",
						"width": 300
					},
					{
						"height": 64,
						"url": "https://i.scdn.co/image/ab67616d000048513bfed0974a996bfd87ea1c9a",
						"width": 64
					}
				],
				"name": "Optimist",
				"release_date": "2021-10-15",
				"release_date_precision": "day",
				"total_tracks": 13,
				"type": "album",
				"uri": "spotify:album:3KChz6qdEH9AfHE6VCBshZ"
			}
		],
		"limit": 5,
		"next": "https://api.spotify.com/v1/browse/new-releases?offset=5&limit=5",
		"offset": 0,
		"previous": null,
		"total": 100
	}
}